{
  "project_info": {
    "project_number": "276468032961",
    "firebase_url": "https://evento-b05d7.firebaseio.com",
    "project_id": "evento-b05d7",
    "storage_bucket": "evento-b05d7.appspot.com"
  },
  "client": [
    {
      "client_info": {
        "mobilesdk_app_id": "1:276468032961:android:e375535c16cb4598",
        "android_client_info": {
          "package_name": "com.sachtech.evento"
        }
      },
      "oauth_client": [
        {
          "client_id": "276468032961-aeijetbqd8md827tfu8pb3ot4f8eov3s.apps.googleusercontent.com",
          "client_type": 1,
          "android_info": {
            "package_name": "com.sachtech.evento",
            "certificate_hash": "4ec8a881eb3ad8d68e6d528e220153e5987df12a"
          }
        },
        {
          "client_id": "276468032961-r39o6kb0psq5nuv4lj4e5viag5mn98cf.apps.googleusercontent.com",
          "client_type": 3
        }
      ],
      "api_key": [
        {
          "current_key": "AIzaSyALJYkzhrIrhzULyQhL9cw0GCV_Arwy16U"
        }
      ],
      "services": {
        "appinvite_service": {
          "other_platform_oauth_client": [
            {
              "client_id": "276468032961-r39o6kb0psq5nuv4lj4e5viag5mn98cf.apps.googleusercontent.com",
              "client_type": 3
            }
          ]
        }
      }
    },
    {
      "client_info": {
        "mobilesdk_app_id": "1:276468032961:android:d87c720a5ad8a164",
        "android_client_info": {
          "package_name": "com.sachtech.evento_provider"
        }
      },
      "oauth_client": [
        {
          "client_id": "276468032961-461a1eosv0974e52fjdlkftv2fcoehap.apps.googleusercontent.com",
          "client_type": 1,
          "android_info": {
            "package_name": "com.sachtech.evento_provider",
            "certificate_hash": "4ec8a881eb3ad8d68e6d528e220153e5987df12a"
          }
        },
        {
          "client_id": "276468032961-r39o6kb0psq5nuv4lj4e5viag5mn98cf.apps.googleusercontent.com",
          "client_type": 3
        }
      ],
      "api_key": [
        {
          "current_key": "AIzaSyALJYkzhrIrhzULyQhL9cw0GCV_Arwy16U"
        }
      ],
      "services": {
        "appinvite_service": {
          "other_platform_oauth_client": [
            {
              "client_id": "276468032961-r39o6kb0psq5nuv4lj4e5viag5mn98cf.apps.googleusercontent.com",
              "client_type": 3
            }
          ]
        }
      }
    }
  ],
  "configuration_version": "1"
}